<?xml version="1.0" encoding="iso-8859-1"?>
<!-- Generator: Adobe Illustrator 19.0.0, SVG Export Plug-In . SVG Version: 6.00 Build 0)  -->
<svg version="1.1" id="Layer_1" xmlns="http://www.w3.org/2000/svg" xmlns:xlink="http://www.w3.org/1999/xlink" x="0px" y="0px"
	 viewBox="0 0 499.998 499.998" style="enable-background:new 0 0 499.998 499.998;" xml:space="preserve">
<g>
	<g>
		<path d="M483.799,456.298c-0.68-0.68-1.388-1.308-2.104-1.888L274.043,285.094l-165.532-165.54l35.676-35.68
			c1.528-1.528,1.528-4,0-5.524L66.979,1.146c-1.524-1.528-3.996-1.528-5.524,0L25.267,37.334
			c-4.376-2.092-9.776-1.376-13.396,2.256c-4.596,4.592-4.596,12.072,0,16.66l435.964,435.96c0.008,0.008,0.008,0.016,0.016,0.024
			c5.172,5.168,11.936,7.764,18.648,7.764c6.476,0,12.904-2.424,17.768-7.292c4.816-4.824,7.412-11.272,7.304-18.176
			C491.467,467.686,488.703,461.206,483.799,456.298z"/>
	</g>
</g>
<g>
</g>
<g>
</g>
<g>
</g>
<g>
</g>
<g>
</g>
<g>
</g>
<g>
</g>
<g>
</g>
<g>
</g>
<g>
</g>
<g>
</g>
<g>
</g>
<g>
</g>
<g>
</g>
<g>
</g>
</svg>
